<?xml version="1.0" encoding="utf-8"?>
<!-- Generator: Adobe Illustrator 18.0.0, SVG Export Plug-In . SVG Version: 6.00 Build 0)  -->
<!DOCTYPE svg PUBLIC "-//W3C//DTD SVG 1.1//EN" "http://www.w3.org/Graphics/SVG/1.1/DTD/svg11.dtd">
<svg version="1.1" id="Capa_1" xmlns:sketch="http://www.bohemiancoding.com/sketch/ns"
	 xmlns="http://www.w3.org/2000/svg" xmlns:xlink="http://www.w3.org/1999/xlink" x="0px" y="0px" viewBox="0 0 32 32"
	 enable-background="new 0 0 32 32" xml:space="preserve">
<title>icon 97 document file docx</title>
<desc>Created with Sketch.</desc>
<g>
	<path d="M9,16H6v7h3c1.1,0,2-0.9,2-2v-3C11,16.9,10.1,16,9,16z M10,21c0,0.6-0.4,1-1,1H7v-5h2c0.6,0,1,0.4,1,1V21z"/>
	<path d="M15,16h-1c-1.1,0-2,0.9-2,2v3c0,1.1,0.9,2,2,2h1c1.1,0,2-0.9,2-2v-3C17,16.9,16.1,16,15,16z M16,21c0,0.6-0.4,1-1,1h-1
		c-0.6,0-1-0.4-1-1v-3c0-0.6,0.4-1,1-1h1c0.6,0,1,0.4,1,1V21z"/>
	<path d="M20,17h1c0.6,0,1,0.4,1,1h1c0-1.1-0.9-2-2-2h-1c-1.1,0-2,0.9-2,2v3c0,1.1,0.9,2,2,2h1c1.1,0,2-0.9,2-2l-1,0
		c0,0.6-0.4,1-1,1h-1c-0.6,0-1-0.4-1-1v-3C19,17.4,19.4,17,20,17z"/>
	<path d="M29,13H19v-3l-6-7H2C0.9,3,0,3.9,0,5v23c0,1.1,0.9,2,2,2h15c1.1,0,2-0.9,2-2v-2h10c1.7,0,3-1.3,3-3v-7
		C32,14.3,30.7,13,29,13z M13,4.5l4.7,5.5H14c-0.5,0-1-0.5-1-1V4.5z M18,28c0,0.5-0.4,1-1,1H2c-0.5,0-1-0.4-1-1V5c0-0.5,0.4-1,1-1
		h10v5c0,1.1,0.9,2,2,2h4v2H6c-1.7,0-3,1.3-3,3v7c0,1.7,1.3,3,3,3h12V28z M31,23c0,1.1-0.9,2-2,2H6c-1.1,0-2-0.9-2-2v-7
		c0-1.1,0.9-2,2-2h23c1.1,0,2,0.9,2,2V23z"/>
	<polygon points="28,16 26.5,18.6 25,16 24,16 26,19.5 24,23 25,23 26.5,20.4 28,23 29,23 27,19.5 29,16 	"/>
</g>
</svg>
