<?xml version="1.0" encoding="utf-8"?>
<!-- Generator: Adobe Illustrator 18.0.0, SVG Export Plug-In . SVG Version: 6.00 Build 0)  -->
<!DOCTYPE svg PUBLIC "-//W3C//DTD SVG 1.1//EN" "http://www.w3.org/Graphics/SVG/1.1/DTD/svg11.dtd">
<svg version="1.1" id="Capa_1" xmlns:sketch="http://www.bohemiancoding.com/sketch/ns"
	 xmlns="http://www.w3.org/2000/svg" xmlns:xlink="http://www.w3.org/1999/xlink" x="0px" y="0px" viewBox="0 0 32 32"
	 enable-background="new 0 0 32 32" xml:space="preserve">
<title>icon 70 document file pdf</title>
<desc>Created with Sketch.</desc>
<g>
	<path d="M15,16h-3v2v5h1v-3h2c1.1,0,2-0.9,2-2C17,16.9,16.1,16,15,16z M15,19h-2v-2h2c0.6,0,1,0.4,1,1C16,18.6,15.6,19,15,19z"/>
	<path d="M21,16h-3v7h3c1.1,0,2-0.9,2-2v-3C23,16.9,22.1,16,21,16z M22,21c0,0.6-0.4,1-1,1h-2v-5h2c0.6,0,1,0.4,1,1V21z"/>
	<path d="M29,13h-8v-3l-6-7H4C2.9,3,2,3.9,2,5v23c0,1.1,0.9,2,2,2h15c1.1,0,2-0.9,2-2v-2h8c1.7,0,3-1.3,3-3v-7
		C32,14.3,30.7,13,29,13z M15,4.5l4.7,5.5H16c-0.5,0-1-0.5-1-1V4.5z M20,28c0,0.5-0.4,1-1,1H4c-0.5,0-1-0.4-1-1V5c0-0.5,0.4-1,1-1
		h10v5c0,1.1,0.9,2,2,2h4v2h-8c-1.7,0-3,1.3-3,3v7c0,1.7,1.3,3,3,3h8V28z M31,23c0,1.1-0.9,2-2,2H12c-1.1,0-2-0.9-2-2v-7
		c0-1.1,0.9-2,2-2h17c1.1,0,2,0.9,2,2V23z"/>
	<polygon points="24,23 25,23 25,20 28,20 28,19 25,19 25,17 29,17 29,16 24,16 	"/>
</g>
</svg>
